{
  "type": "postgres",
  "host": "localhost",
  "port": 5432,
  "username": "postgres",
  "password": "docker",
  "database": "enterprises",
  "entities": [
    "./src/modules/**/infra/typeorm/entities/*.ts"
  ],
  "migrations": [
    "./src/shared/infra/typeorm/migrations/*.ts"
  ],
  "seeds": [
    "./src/shared/infra/typeorm/seeds/*.ts"
  ],
  "cli": {
    "migrationsDir": "./src/shared/infra/typeorm/migrations"
  }
}
